{
    "installed": {
        "client_id": "1029805265853-85146if90rvmnkphajgo1dvm7pkeua8f.apps.googleusercontent.com",
        "project_id": "quickstart-1585320102087",
        "auth_uri": "https://accounts.google.com/o/oauth2/auth",
        "token_uri": "https://oauth2.googleapis.com/token",
        "auth_provider_x509_cert_url": "https://www.googleapis.com/oauth2/v1/certs",
        "client_secret": "O5JPRluFuLjzJ_PYhug9uevl",
        "redirect_uris": [
            "urn:ietf:wg:oauth:2.0:oob",
            "http://localhost"
        ]
    }
}